{
    "version": "0.0.0",
    "summary": "Blackjack — the code challenge at Lystable",
    "repository": "https://github.com/elm-package-expects-a-github-repo-url/here.git",
    "license": "UNLICENSED",
    "source-directories": [
        "source"
    ],
    "exposed-modules": [],
    "dependencies": {
        "elm-lang/core": "3.0.0 <= v < 4.0.0",
        "evancz/elm-html": "4.0.2 <= v < 5.0.0",
        "evancz/start-app": "2.0.2 <= v < 3.0.0"
    },
    "elm-version": "0.16.0 <= v < 0.17.0"
}